%YAML 1.1
%TAG !u! tag:unity3d.com,2011:
--- !u!74 &7400000
AnimationClip:
  m_ObjectHideFlags: 0
  m_CorrespondingSourceObject: {fileID: 0}
  m_PrefabInstance: {fileID: 0}
  m_PrefabAsset: {fileID: 0}
  m_Name: Fire
  serializedVersion: 6
  m_Legacy: 0
  m_Compressed: 0
  m_UseHighQualityCurve: 1
  m_RotationCurves: []
  m_CompressedRotationCurves: []
  m_EulerCurves: []
  m_PositionCurves: []
  m_ScaleCurves: []
  m_FloatCurves: []
  m_PPtrCurves:
  - curve:
    - time: 0
      value: {fileID: 21300000, guid: 383d9b3ad92cc5a4ab33699266690eae, type: 3}
    - time: 0.06666667
      value: {fileID: 21300002, guid: 383d9b3ad92cc5a4ab33699266690eae, type: 3}
    - time: 0.15
      value: {fileID: 21300004, guid: 383d9b3ad92cc5a4ab33699266690eae, type: 3}
    - time: 0.21666667
      value: {fileID: 21300006, guid: 383d9b3ad92cc5a4ab33699266690eae, type: 3}
    - time: 0.28333333
      value: {fileID: 21300008, guid: 383d9b3ad92cc5a4ab33699266690eae, type: 3}
    - time: 0.35
      value: {fileID: 21300010, guid: 383d9b3ad92cc5a4ab33699266690eae, type: 3}
    - time: 0.43333334
      value: {fileID: 21300012, guid: 383d9b3ad92cc5a4ab33699266690eae, type: 3}
    - time: 0.5
      value: {fileID: 21300014, guid: 383d9b3ad92cc5a4ab33699266690eae, type: 3}
    - time: 0.56666666
      value: {fileID: 21300016, guid: 383d9b3ad92cc5a4ab33699266690eae, type: 3}
    - time: 0.65
      value: {fileID: 21300018, guid: 383d9b3ad92cc5a4ab33699266690eae, type: 3}
    - time: 0.71666664
      value: {fileID: 21300020, guid: 383d9b3ad92cc5a4ab33699266690eae, type: 3}
    - time: 0.78333336
      value: {fileID: 21300022, guid: 383d9b3ad92cc5a4ab33699266690eae, type: 3}
    - time: 0.85
      value: {fileID: 21300024, guid: 383d9b3ad92cc5a4ab33699266690eae, type: 3}
    - time: 0.93333334
      value: {fileID: 21300026, guid: 383d9b3ad92cc5a4ab33699266690eae, type: 3}
    - time: 1
      value: {fileID: 21300028, guid: 383d9b3ad92cc5a4ab33699266690eae, type: 3}
    attribute: m_Sprite
    path: 
    classID: 212
    script: {fileID: 0}
  m_SampleRate: 60
  m_WrapMode: 0
  m_Bounds:
    m_Center: {x: 0, y: 0, z: 0}
    m_Extent: {x: 0, y: 0, z: 0}
  m_ClipBindingConstant:
    genericBindings:
    - serializedVersion: 2
      path: 0
      attribute: 0
      script: {fileID: 0}
      typeID: 212
      customType: 23
      isPPtrCurve: 1
    pptrCurveMapping:
    - {fileID: 21300000, guid: 383d9b3ad92cc5a4ab33699266690eae, type: 3}
    - {fileID: 21300002, guid: 383d9b3ad92cc5a4ab33699266690eae, type: 3}
    - {fileID: 21300004, guid: 383d9b3ad92cc5a4ab33699266690eae, type: 3}
    - {fileID: 21300006, guid: 383d9b3ad92cc5a4ab33699266690eae, type: 3}
    - {fileID: 21300008, guid: 383d9b3ad92cc5a4ab33699266690eae, type: 3}
    - {fileID: 21300010, guid: 383d9b3ad92cc5a4ab33699266690eae, type: 3}
    - {fileID: 21300012, guid: 383d9b3ad92cc5a4ab33699266690eae, type: 3}
    - {fileID: 21300014, guid: 383d9b3ad92cc5a4ab33699266690eae, type: 3}
    - {fileID: 21300016, guid: 383d9b3ad92cc5a4ab33699266690eae, type: 3}
    - {fileID: 21300018, guid: 383d9b3ad92cc5a4ab33699266690eae, type: 3}
    - {fileID: 21300020, guid: 383d9b3ad92cc5a4ab33699266690eae, type: 3}
    - {fileID: 21300022, guid: 383d9b3ad92cc5a4ab33699266690eae, type: 3}
    - {fileID: 21300024, guid: 383d9b3ad92cc5a4ab33699266690eae, type: 3}
    - {fileID: 21300026, guid: 383d9b3ad92cc5a4ab33699266690eae, type: 3}
    - {fileID: 21300028, guid: 383d9b3ad92cc5a4ab33699266690eae, type: 3}
  m_AnimationClipSettings:
    serializedVersion: 2
    m_AdditiveReferencePoseClip: {fileID: 0}
    m_AdditiveReferencePoseTime: 0
    m_StartTime: 0
    m_StopTime: 1.0166667
    m_OrientationOffsetY: 0
    m_Level: 0
    m_CycleOffset: 0
    m_HasAdditiveReferencePose: 0
    m_LoopTime: 1
    m_LoopBlend: 0
    m_LoopBlendOrientation: 0
    m_LoopBlendPositionY: 0
    m_LoopBlendPositionXZ: 0
    m_KeepOriginalOrientation: 0
    m_KeepOriginalPositionY: 1
    m_KeepOriginalPositionXZ: 0
    m_HeightFromFeet: 0
    m_Mirror: 0
  m_EditorCurves: []
  m_EulerEditorCurves: []
  m_HasGenericRootTransform: 0
  m_HasMotionFloatCurves: 0
  m_Events: []
